Division,WeightClassKg,Place,Name,Team,BodyweightKg,Best3SquatKg,Best3BenchKg,Best3DeadliftKg,TotalKg,Equipment,Event,Sex,BirthDate
Boys,51.71,1,Jamie Rios,Big Lake Reagan County,51.17,149.69,83.91,165.56,399.16,Single-ply,SBD,M,
Boys,51.71,2,Carson Ellison,Miles,50.89,111.13,65.77,124.74,301.64,Single-ply,SBD,M,
Boys,51.71,3,Robert Saldana,Eldorado,48.17,102.06,56.7,131.54,290.3,Single-ply,SBD,M,
Boys,51.71,4,Caleb Lee,Monahans,49.08,111.13,54.43,115.67,281.23,Single-ply,SBD,M,
Boys,55.79,1,Lane Smith,Ozona,51.98,140.61,81.65,142.88,365.14,Single-ply,SBD,M,
Boys,55.79,2,Dylan Garza,Miles,53.61,133.81,72.57,129.27,335.66,Single-ply,SBD,M,
Boys,55.79,3,Giovani Pablo,San Angelo Lake View,54.61,124.74,63.5,120.2,308.44,Single-ply,SBD,M,
Boys,55.79,4,Xaden Badillo,Ozona,53.34,92.99,56.7,122.47,272.16,Single-ply,SBD,M,
Boys,59.87,1,Brian Lopez,Big Lake Reagan County,59.78,181.44,102.06,167.83,451.32,Single-ply,SBD,M,
Boys,59.87,2,Ethan Rodriguez,Midland Lee,56.65,145.15,120.2,170.1,435.45,Single-ply,SBD,M,
Boys,59.87,3,Johnny Jamison,Snyder,59.42,174.63,92.99,165.56,433.18,Single-ply,SBD,M,
Boys,59.87,4,Sergio Gonzalez,Big Lake Reagan County,59.78,154.22,97.52,179.17,430.91,Single-ply,SBD,M,
Boys,59.87,5,Aidan Villanueva #1,Sonora,58.33,156.49,81.65,167.83,405.97,Single-ply,SBD,M,
Boys,59.87,6,Juan Ruiz,Sonora,59.87,151.95,81.65,165.56,399.16,Single-ply,SBD,M,
Boys,59.87,7,Pablo Ramirez,Midland Lee,58.88,142.88,99.79,149.69,392.36,Single-ply,SBD,M,
Boys,59.87,8,Julian Dominguez,Ozona,59.69,138.35,81.65,163.29,383.29,Single-ply,SBD,M,
Boys,59.87,9,Radek Spatz,Miles,56.79,151.95,83.91,138.35,374.21,Single-ply,SBD,M,
Boys,59.87,10,Austin Wood,San Angelo Lake View,59.87,97.52,56.7,108.86,263.08,Single-ply,SBD,M,
Boys,59.87,11,Ariel Salazar,Sonora,58.6,127.01,58.97,61.23,247.21,Single-ply,SBD,M,
Boys,67.13,1,Jose Dominguez,Ozona,66.95,192.78,106.59,199.58,498.95,Single-ply,SBD,M,
Boys,67.13,2,Adam Sanchez,Sonora,67.13,172.37,90.72,174.63,437.72,Single-ply,SBD,M,
Boys,67.13,3,Dravon Valenzuela,Big Lake Reagan County,66.77,167.83,90.72,176.9,435.45,Single-ply,SBD,M,
Boys,67.13,4,Marko Vasquez,Sonora,60.42,151.95,86.18,181.44,419.57,Single-ply,SBD,M,
Boys,67.13,5,Damian Martinez,Sonora,60.87,145.15,70.31,161.03,376.48,Single-ply,SBD,M,
Boys,67.13,6,Tanner Wood,Miles,65.41,138.35,70.31,163.29,371.95,Single-ply,SBD,M,
Boys,67.13,7,Bailey Jowers,San Angelo Central,67.04,124.74,79.38,147.42,351.53,Single-ply,SBD,M,
Boys,67.13,8,Armando Guevara,San Angelo Lake View,64.86,90.72,68.04,104.33,263.08,Single-ply,SBD,M,
Boys,74.84,1,David Guerrero,Big Lake Reagan County,72.3,247.21,113.4,183.7,544.31,Single-ply,SBD,M,
Boys,74.84,2,Jack Oliveira,Mertzon Irion County,73.39,181.44,102.06,179.17,462.66,Single-ply,SBD,M,
Boys,74.84,3,Ezekiel Davila,San Angelo Lake View,70.58,167.83,88.45,176.9,433.18,Single-ply,SBD,M,
Boys,74.84,4,Kase Pelzel,Miles,72.39,165.56,88.45,165.56,419.57,Single-ply,SBD,M,
Boys,74.84,5,Alyn Salazar,San Angelo Lake View,70.85,149.69,97.52,158.76,405.97,Single-ply,SBD,M,
Boys,74.84,6,Braden St Clair,Snyder,71.03,158.76,90.72,136.08,385.55,Single-ply,SBD,M,
Boys,74.84,7,Jonathan Lozano,Sonora,68.04,149.69,97.52,136.08,383.29,Single-ply,SBD,M,
Boys,74.84,8,Tanner Jones,Monahans,68.76,133.81,74.84,136.08,344.73,Single-ply,SBD,M,
Boys,74.84,9,Alexander Miranda,Monahans,71.03,111.13,56.7,142.88,310.71,Single-ply,SBD,M,
Boys,74.84,10,Noah Powell,Monahans,71.3,117.93,65.77,122.47,306.17,Single-ply,SBD,M,
Boys,74.84,11,Diego Aguilera,San Angelo Lake View,72.57,97.52,58.97,97.52,254.01,Single-ply,SBD,M,
Boys,74.84,DQ,Gage Piwetz,Mertzon Irion County,74.84,,,,,Single-ply,SBD,M,
Boys,74.84,DQ,Brayden Dunlap,Miles,74.84,,,,,Single-ply,SBD,M,
Boys,74.84,DQ,Mike Martinez,Ozona,72.76,106.59,,,,Single-ply,SBD,M,
Boys,74.84,DQ,Aaron Noriega,Sonora,73.12,133.81,79.38,,,Single-ply,SBD,M,
Boys,82.1,1,Aiden Fuentes,Ozona,81.1,233.6,131.54,219.99,585.13,Single-ply,SBD,M,
Boys,82.1,2,Juan Saucedo,Big Lake Reagan County,80.29,213.19,154.22,208.65,576.06,Single-ply,SBD,M,
Boys,82.1,3,Christian DeLuna,Big Lake Reagan County,82.1,231.33,129.27,195.04,555.65,Single-ply,SBD,M,
Boys,82.1,4,Dylan Rodriguez,Snyder,81.19,215.46,111.13,222.26,548.85,Single-ply,SBD,M,
Boys,82.1,5,Carter Christensen,San Angelo Lake View,81.01,195.04,149.69,199.58,544.31,Single-ply,SBD,M,
Boys,82.1,6,Jaden Rodriguez,Midland Lee,78.02,167.83,108.86,183.7,460.4,Single-ply,SBD,M,
Boys,82.1,7,Enrique Calzada,Mertzon Irion County,78.83,165.56,88.45,170.1,424.11,Single-ply,SBD,M,
Boys,82.1,8,Anthony Ramirez,San Angelo Lake View,79.56,113.4,77.11,149.69,340.19,Single-ply,SBD,M,
Boys,82.1,DQ,Matthew Muncey,San Angelo Central,80.74,142.88,,,,Single-ply,SBD,M,
Boys,82.1,DQ,Elias Sanchez,Miles,76.75,,,,,Single-ply,SBD,M,
Boys,89.81,1,Hayden Hall,Midland Lee,86.27,242.67,138.35,224.53,605.55,Single-ply,SBD,M,
Boys,89.81,2,Benito Alaniz,Snyder,89.09,240.4,145.15,219.99,605.55,Single-ply,SBD,M,
Boys,89.81,3,Issahia Valenzuela,Big Lake Reagan County,87.63,224.53,111.13,208.65,544.31,Single-ply,SBD,M,
Boys,89.81,4,Austin Damian,Ozona,87.45,206.38,133.81,201.85,542.04,Single-ply,SBD,M,
Boys,89.81,5,Catarino Hernandez,Sonora,84.73,192.78,92.99,185.97,471.74,Single-ply,SBD,M,
Boys,89.81,6,Josh Lackey,Monahans,88,163.29,106.59,174.63,444.52,Single-ply,SBD,M,
Boys,89.81,7,Sylis Vidana,Monahans,88.72,170.1,102.06,163.29,435.45,Single-ply,SBD,M,
Boys,89.81,8,Connor Norton,Big Lake Reagan County,84.82,170.1,97.52,136.08,403.7,Single-ply,SBD,M,
Boys,89.81,9,Isaac Cordova,San Angelo Lake View,88.45,161.03,86.18,147.42,394.63,Single-ply,SBD,M,
Boys,89.81,10,Joseph Vowels,Monahans,89.72,131.54,77.11,156.49,365.14,Single-ply,SBD,M,
Boys,89.81,DQ,Bryson Duncan,Snyder,89.81,,,,,Single-ply,SBD,M,
Boys,89.81,DQ,Auden Torres,Miles,89.81,,,,,Single-ply,SBD,M,
Boys,89.81,DQ,Kyelar Connally,Midland Lee,88.63,188.24,,,,Single-ply,SBD,M,
Boys,99.79,1,Reyes Silva,Snyder,99.06,340.19,154.22,235.87,730.28,Single-ply,SBD,M,
Boys,99.79,2,Logan Sanders,San Angelo Lake View,98.52,217.72,142.88,254.01,614.62,Single-ply,SBD,M,
Boys,99.79,3,Hector Montes,Midland Lee,98.79,238.14,156.49,215.46,610.08,Single-ply,SBD,M,
Boys,99.79,4,Christian Gutierrez,Miles,93.62,229.06,129.27,204.12,562.45,Single-ply,SBD,M,
Boys,99.79,5,Noel Perez,Big Lake Reagan County,92.26,226.8,122.47,181.44,530.7,Single-ply,SBD,M,
Boys,99.79,6,Ricardo Sanchez,San Angelo Lake View,95.25,165.56,111.13,190.51,467.2,Single-ply,SBD,M,
Boys,99.79,7,Eli Hernandez,Big Lake Reagan County,92.71,181.44,99.79,170.1,451.32,Single-ply,SBD,M,
Boys,99.79,8,Damian Hererra,Monahans,97.16,149.69,104.33,188.24,442.25,Single-ply,SBD,M,
Boys,99.79,9,Izrael Lopez,San Angelo Central,91.26,163.29,102.06,172.37,437.72,Single-ply,SBD,M,
Boys,99.79,10,Jayboy Martinez,Big Lake Reagan County,95.16,158.76,90.72,179.17,428.64,Single-ply,SBD,M,
Boys,99.79,11,Alex Alcantar,San Angelo Lake View,95.25,149.69,99.79,167.83,417.3,Single-ply,SBD,M,
Boys,99.79,12,Nick Samaripa,San Angelo Central,92.08,183.7,86.18,136.08,405.97,Single-ply,SBD,M,
Boys,99.79,13,Manuel Divila,Big Lake Reagan County,92.44,154.22,95.25,156.49,405.97,Single-ply,SBD,M,
Boys,99.79,14,Robert Burrow,Monahans,91.08,147.42,74.84,154.22,376.48,Single-ply,SBD,M,
Boys,99.79,15,Jon Parks,Mertzon Irion County,92.71,138.35,92.99,136.08,367.41,Single-ply,SBD,M,
Boys,99.79,DQ,Isaias Ramirez,Midland Lee,93.98,156.49,,,,Single-ply,SBD,M,
Boys,99.79,DQ,Xander Richardson,Snyder,94.62,244.94,127.01,,,Single-ply,SBD,M,
Boys,109.77,1,Xavier Salinas,Midland Lee,105.32,229.06,127.01,217.72,573.79,Single-ply,SBD,M,
Boys,109.77,2,Jacob Alston,Monahans,105.41,161.03,104.33,188.24,453.59,Single-ply,SBD,M,
Boys,109.77,3,John Cepeda,San Angelo Lake View,108.05,145.15,92.99,127.01,365.14,Single-ply,SBD,M,
Boys,124.74,1,Juan Ortiz,San Angelo Lake View,122.92,215.46,142.88,213.19,571.53,Single-ply,SBD,M,
Boys,124.74,2,Justin Glass,Big Lake Reagan County,116.12,235.87,129.27,190.51,555.65,Single-ply,SBD,M,
Boys,124.74,3,Cody High,San Angelo Lake View,122.47,217.72,113.4,210.92,542.04,Single-ply,SBD,M,
Boys,124.74,4,Kevin Townsend,San Angelo Lake View,123.83,188.24,115.67,195.04,498.95,Single-ply,SBD,M,
Boys,124.74+,1,Eric Cisneros,Midland Lee,134.26,265.35,170.1,233.6,669.05,Single-ply,SBD,M,
Boys,124.74+,2,Abram Cabello,Midland Lee,131.18,272.16,163.29,219.99,655.44,Single-ply,SBD,M,
Boys,124.74+,3,Ethan Sanchez #1,San Angelo Lake View,143.15,233.6,172.37,215.46,621.42,Single-ply,SBD,M,
Boys,124.74+,4,Kobe Moore,San Angelo Central,132.27,226.8,113.4,158.76,498.95,Single-ply,SBD,M,
Boys,124.74+,5,Antonio Ronquillo,San Angelo Lake View,145.78,176.9,147.42,165.56,489.88,Single-ply,SBD,M,
Boys,124.74+,6,Miguel Jauregui,Monahans,181.62,149.69,86.18,156.49,392.36,Single-ply,SBD,M,
Boys,124.74+,NS,Keano Perez,Ozona,,,,,,Single-ply,SBD,M,
Boys,124.74+,DQ,Carlo Garcia,Midland Lee,125.19,,,,,Single-ply,SBD,M,
Boys,124.74+,DQ,Justin Barton,San Angelo Central,139.89,238.14,113.4,,,Single-ply,SBD,M,
Boys,,NS,Juan Martinez,Big Lake Reagan County,,,,,,Single-ply,SBD,M,
Boys,,NS,Isaiah Perez,Big Lake Reagan County,,,,,,Single-ply,SBD,M,
Boys,,NS,Tony Ortiz,Big Lake Reagan County,,,,,,Single-ply,SBD,M,
