Place,Name,BirthYear,BodyweightKg,Squat1Kg,Squat2Kg,Squat3Kg,Best3SquatKg,Bench1Kg,Bench2Kg,Bench3Kg,Best3BenchKg,Deadlift1Kg,Deadlift2Kg,Deadlift3Kg,Best3DeadliftKg,TotalKg,Division,Country,WeightClassKg,Equipment,BirthDate,Event,Sex
1,Koshal Jha,2004,51,137.5,140,147.5,147.5,87.5,90,-92.5,90,140,150,-155,150,387.5,Sub-Juniors,India,53,Raw,,SBD,M
2,Danila Kleikin,2007,51.8,120,132.5,-137.5,132.5,75,80,82.5,82.5,150,160,-175,160,375,Sub-Juniors,Kazakhstan,53,Raw,,SBD,M
3,Timur Khuziakhmetov,2004,52.55,120,127.5,-132.5,127.5,70,-75,-75,70,-160,160,-182.5,160,357.5,Sub-Juniors,Kazakhstan,53,Raw,,SBD,M
4,Bakkar Majeed,2004,52.25,100,-120,-120,100,72.5,82.5,85,85,130,142.5,-157.5,142.5,327.5,Sub-Juniors,Libya,53,Raw,,SBD,M
5,Soki Kanda,2005,51.35,110,-130,-130,110,55,-62.5,62.5,62.5,140,-152.5,-152.5,140,312.5,Sub-Juniors,Japan,53,Raw,,SBD,M
6,Mohamed Al-Ashram,2006,52.95,70,-80,82.5,82.5,60,-70,-70,60,110,120,-137.5,120,262.5,Sub-Juniors,Palestine,53,Raw,,SBD,M
1,Ryuichi Inubushi,2004,57.75,152.5,162.5,-167.5,162.5,148,-156,-156,148,155,167.5,175,175,485.5,Sub-Juniors,Japan,59,Raw,,SBD,M
2,Hiroki Oba,2004,56.55,167.5,175,182.5,182.5,90,95,97.5,97.5,182.5,192.5,197.5,197.5,477.5,Sub-Juniors,Japan,59,Raw,,SBD,M
3,Lucio Lima,2004,58.8,150,160,167.5,167.5,82.5,-90,-90,82.5,210,220,-237.5,220,470,Sub-Juniors,Brazil,59,Raw,,SBD,M
4,Raiyan Rahman,2004,58.15,162.5,170,-175,170,82.5,87.5,-92.5,87.5,175,185,192.5,192.5,450,Sub-Juniors,Bangladesh,59,Raw,,SBD,M
5,Ceyhan Bilici Cagatay,2006,58.1,150,162.5,-175,162.5,75,82.5,-87.5,82.5,160,180,-187.5,180,425,Sub-Juniors,Turkey,59,Raw,,SBD,M
6,Aitas Ospanov,2004,57.35,130,-140,140,140,97.5,-102.5,-102.5,97.5,170,-177.5,-177.5,170,407.5,Sub-Juniors,Kazakhstan,59,Raw,,SBD,M
7,Om Pednekar,2004,58.15,130,142.5,-145,142.5,72.5,77.5,-82.5,77.5,165,177.5,-187.5,177.5,397.5,Sub-Juniors,USA,59,Raw,,SBD,M
8,Kaloyan Panayotov,2008,58.65,160,-170,-172.5,160,90,97.5,-100,97.5,140,-152.5,-152.5,140,397.5,Sub-Juniors,Bulgaria,59,Raw,,SBD,M
9,Edward Butcher,2006,58.5,130,-140,140,140,85,90,-92.5,90,140,152.5,160,160,390,Sub-Juniors,UK,59,Raw,,SBD,M
10,Jesus Rojo,2005,57.25,140,-147.5,147.5,147.5,72.5,75,77.5,77.5,140,147.5,155,155,380,Sub-Juniors,Mexico,59,Raw,,SBD,M
11,Rafael Saacks,2005,58.35,120,127.5,-140,127.5,67.5,70,-72.5,70,175,182.5,-190,182.5,380,Sub-Juniors,South Africa,59,Raw,,SBD,M
12,Daniel Saacks,2007,58.8,115,122.5,127.5,127.5,67.5,72.5,-77.5,72.5,145,165,-175,165,365,Sub-Juniors,South Africa,59,Raw,,SBD,M
13,Ridvan Demirel Ahmet,2004,58.3,110,120,125,125,60,67.5,72.5,72.5,135,152.5,-165,152.5,350,Sub-Juniors,Turkey,59,Raw,,SBD,M
1,Alessandro Pastorello,2004,65.9,180,190,195,195,122.5,127.5,-130,127.5,230,240,246,246,568.5,Sub-Juniors,Italy,66,Raw,,SBD,M
2,Mathis Jolicoeur,2004,64.7,182.5,187.5,,187.5,122.5,127.5,-132.5,127.5,235,-245.5,-253.5,235,550,Sub-Juniors,Canada,66,Raw,,SBD,M
3,Cristian Verdugo Beltran,2005,65.65,182.5,190,195,195,115,-120,-120,115,220,-230,230,230,540,Sub-Juniors,Spain,66,Raw,,SBD,M
4,Alexandr Ivanov,2004,65.4,190,200,-210,200,120,-125,-125,120,200,210,-220,210,530,Sub-Juniors,Kazakhstan,66,Raw,,SBD,M
5,Yiğit Çetin,2005,65.6,150,160,170,170,100,107.5,-110,107.5,180,190,-200,190,467.5,Sub-Juniors,Turkey,66,Raw,,SBD,M
6,Erdem Dikici,2004,64.45,130,140,145,145,97.5,105,-110,105,165,-180,190,190,440,Sub-Juniors,Turkey,66,Raw,,SBD,M
7,Sergio Sedano,2004,64.3,135,145,-150,145,85,87.5,-90,87.5,-155,155,162.5,162.5,395,Sub-Juniors,Mexico,66,Raw,,SBD,M
1,Kostyantyn Sosnyk,2004,72.55,220,232.5,240,240,145,152.5,157.5,157.5,235,-250,250,250,647.5,Sub-Juniors,Canada,74,Raw,,SBD,M
2,Alessandro Barbero #1,2004,73.7,210,220,227.5,227.5,-120,120,125,125,245,260,-272.5,260,612.5,Sub-Juniors,Italy,74,Raw,,SBD,M
3,Clark Whitefield,2004,72.6,205,217.5,225,225,130,137.5,145,145,210,230,240,240,610,Sub-Juniors,USA,74,Raw,,SBD,M
4,Sujal Jaiswal,2004,72.4,172.5,187.5,200,200,120,-132.5,132.5,132.5,240,255,272,272,604.5,Sub-Juniors,India,74,Raw,,SBD,M
5,Šimon Falta,2004,73.35,215,-222.5,-222.5,215,125,130,132.5,132.5,230,-255,-255,230,577.5,Sub-Juniors,Czechia,74,Raw,,SBD,M
6,Isaac Wong,2005,68.7,185,197.5,205,205,100,105,-110,105,220,230,237.5,237.5,547.5,Sub-Juniors,UK,74,Raw,,SBD,M
7,Sonu Singh,2004,73.65,160,170,-175,170,90,97.5,100,100,200,220,-230,220,490,Sub-Juniors,South Africa,74,Raw,,SBD,M
8,Xander Nel,2004,73.85,175,185,-190,185,90,95,-97.5,95,190,202.5,207.5,207.5,487.5,Sub-Juniors,South Africa,74,Raw,,SBD,M
9,Rento Mitsuoka,2005,71.5,170,180,-185,180,105,112.5,-115,112.5,180,-192.5,192.5,192.5,485,Sub-Juniors,Japan,74,Raw,,SBD,M
10,Arttu Piiroinen,2004,73.8,150,-160,160,160,105,-110,110,110,200,210,-220,210,480,Sub-Juniors,Finland,74,Raw,,SBD,M
11,Haoran Sheng,2004,69.55,-165,165,170,170,82.5,87.5,92.5,92.5,182.5,,,182.5,445,Sub-Juniors,New Zealand,74,Raw,,SBD,M
12,Richard Novotný,2006,72.1,130,-142.5,145,145,80,90,-97.5,90,170,-180,,170,405,Sub-Juniors,Czechia,74,Raw,,SBD,M
DQ,Mostafa Zahran,2004,73.55,-180,-180,-180,-180,90,-105,105,105,180,-200,-225,180,,Sub-Juniors,Egypt,74,Raw,,SBD,M
1,Granados Esteban Navarro,2004,80.9,-227.5,227.5,245,245,155,-165,-165,155,240,-252.5,-252.5,240,640,Sub-Juniors,Costa Rica,83,Raw,,SBD,M
2,Vincent Lo,2004,80.6,200,212.5,220,220,145,150,-152.5,150,250,257.5,-265,257.5,627.5,Sub-Juniors,Canada,83,Raw,,SBD,M
3,Viktor Hubáček,2004,82.8,192.5,202.5,207.5,207.5,145,-150,-155,145,245,262.5,272.5,272.5,625,Sub-Juniors,Czechia,83,Raw,,SBD,M
4,Thomas McCarthy #4,2004,82.65,222.5,237.5,245,245,110,-117.5,-117.5,110,252.5,267.5,-287.5,267.5,622.5,Sub-Juniors,Ireland,83,Raw,,SBD,M
5,Janko Kruger,2004,82.85,205,215,217.5,217.5,140,-145,-145,140,240,252.5,-267.5,252.5,610,Sub-Juniors,South Africa,83,Raw,,SBD,M
6,Isaak Manuel,2005,80.9,217.5,227.5,232.5,232.5,102.5,110,115,115,237.5,250,257.5,257.5,605,Sub-Juniors,UK,83,Raw,,SBD,M
7,James West #3,2004,80.6,-202.5,202.5,215,215,127.5,132.5,-135,132.5,242.5,255,-267.5,255,602.5,Sub-Juniors,UK,83,Raw,,SBD,M
8,Eero Myyrä,2004,82.45,205,215,-217.5,215,-120,-120,120,120,245,250,-255,250,585,Sub-Juniors,Finland,83,Raw,,SBD,M
9,Yagiz Akkilic,2004,82.3,190,202.5,-210,202.5,132.5,137.5,-142.5,137.5,240,-252.5,-260,240,580,Sub-Juniors,Turkey,83,Raw,,SBD,M
10,Tomáš Zahradníček,2004,82.55,205,212.5,-220,212.5,125,-132.5,-132.5,125,230,-242.5,,230,567.5,Sub-Juniors,Czechia,83,Raw,,SBD,M
11,Joshua Voeten,2004,82.7,190,202.5,207.5,207.5,117.5,125,127.5,127.5,220,225,-235,225,560,Sub-Juniors,Netherlands,83,Raw,,SBD,M
12,Jorel Omandam,2004,81.45,175,185,-190,185,112.5,117.5,120,120,230,245,-250,245,550,Sub-Juniors,Netherlands,83,Raw,,SBD,M
13,Camdyn Carney,2004,82.55,185,197.5,207.5,207.5,-107.5,107.5,115,115,205,217.5,227.5,227.5,550,Sub-Juniors,Canada,83,Raw,,SBD,M
1,Malik Bernoussi Triolet,2004,92.1,267.5,275,282,282,-195,195,200.5,200.5,275,292.5,-310.5,292.5,775,Sub-Juniors,France,93,Raw,,SBD,M
2,Jordi van Heijningen,2005,91.75,240,257.5,-275.5,257.5,160,167.5,172.5,172.5,277.5,-292.5,-292.5,277.5,707.5,Sub-Juniors,Netherlands,93,Raw,,SBD,M
3,Julius Lankila,2005,92.7,215,225,-230,225,-147.5,147.5,155,155,260,272.5,285,285,665,Sub-Juniors,Finland,93,Raw,,SBD,M
4,Finley Jones,2004,92.65,220,230,-240,230,142.5,150,155,155,252.5,265,277.5,277.5,662.5,Sub-Juniors,UK,93,Raw,,SBD,M
5,Yi Low Jing,2004,91.8,-217.5,217.5,227.5,227.5,115,120,122.5,122.5,280,-295,-295,280,630,Sub-Juniors,Singapore,93,Raw,,SBD,M
6,Mehmet Samlioglu,2004,91.35,-220,220,232.5,232.5,130,137.5,-142.5,137.5,230,250,-282.5,250,620,Sub-Juniors,Belgium,93,Raw,,SBD,M
7,Ville Hannula,2005,91.75,230,240,-252.5,240,115,120,-125,120,240,250,255,255,615,Sub-Juniors,Finland,93,Raw,,SBD,M
8,Axel Ibarra,2004,91.8,-185,185,-200,185,110,117.5,120,120,217.5,232.5,240,240,545,Sub-Juniors,Mexico,93,Raw,,SBD,M
9,Philip Coetzer,2004,91.2,170,182.5,190,190,120,125,-130,125,215,-222.5,,215,530,Sub-Juniors,South Africa,93,Raw,,SBD,M
10,Kotaro Harada,2006,92.25,-160,160,180,180,115,122.5,130,130,190,205,-220,205,515,Sub-Juniors,Japan,93,Raw,,SBD,M
11,Taisei Mitsuoka,2004,86.3,170,180,-200,180,100,-110,-110,100,200,210,-220,210,490,Sub-Juniors,Japan,93,Raw,,SBD,M
12,Jean-Pierre Blom,2006,86.3,165,180,185,185,85,90,95,95,145,170,180,180,460,Sub-Juniors,South Africa,93,Raw,,SBD,M
1,Olivér Susa,2004,104.75,255,275,-295,275,196,205.5,210.5,210.5,245,265,270,270,755.5,Sub-Juniors,Hungary,105,Raw,,SBD,M
2,Nonso Chinye,2005,101.95,230,245,-250,245,145,150,155,155,300,325,330,330,730,Sub-Juniors,UK,105,Raw,,SBD,M
3,Kaden Gammelgaard,2004,103.25,242.5,255,262.5,262.5,150,157.5,162.5,162.5,265,282.5,302.5,302.5,727.5,Sub-Juniors,USA,105,Raw,,SBD,M
4,Markus Maja,2004,102.25,235,250,-260,250,140,150,157.5,157.5,235,250,-265,250,657.5,Sub-Juniors,Finland,105,Raw,,SBD,M
5,Yasar Tilki Semih,2004,104.15,205,225,-237.5,225,140,145,150,150,245,260,270,270,645,Sub-Juniors,Turkey,105,Raw,,SBD,M
6,Reece Mitchell,2004,102.4,225,235,-240,235,135,145,147.5,147.5,235,245,252.5,252.5,635,Sub-Juniors,UK,105,Raw,,SBD,M
7,Naoise Walsh,2004,103.7,207.5,217.5,227.5,227.5,115,-122.5,122.5,122.5,245,260,270,270,620,Sub-Juniors,Ireland,105,Raw,,SBD,M
8,Shogen Iizuka,2006,103.4,195,205,-210,205,145,-152.5,-160,145,200,210,220,220,570,Sub-Juniors,Japan,105,Raw,,SBD,M
9,Romeo Fernandez,2005,103.95,190,200,212.5,212.5,-102.5,-105,105,105,220,230,240,240,557.5,Sub-Juniors,Mexico,105,Raw,,SBD,M
10,Luuk Eijkelberg,2004,104.2,200,210,220,220,120,125,132.5,132.5,140,,,140,492.5,Sub-Juniors,Netherlands,105,Raw,,SBD,M
1,Ivan Georgiev,2004,116.05,225,245,255,255,197.5,208,-212.5,208,287.5,306.5,312.5,312.5,775.5,Sub-Juniors,Bulgaria,120,Raw,,SBD,M
2,Róbert Guðbrandsson,2004,117.35,200,220,225,225,140,-152.5,152.5,152.5,215,230,-245,230,607.5,Sub-Juniors,Iceland,120,Raw,,SBD,M
3,Stvan Oliveira,2004,111,185,200,210,210,155,-162.5,162.5,162.5,210,-225,-235,210,582.5,Sub-Juniors,Brazil,120,Raw,,SBD,M
4,Henrik Chan,2004,114.85,-185,185,195,195,152.5,-160,160,160,202.5,-217.5,222.5,222.5,577.5,Sub-Juniors,USA,120,Raw,,SBD,M
5,Dominik Słoma,2004,110.7,200,-215,215,215,85,90,-95,90,200,220,235,235,540,Sub-Juniors,Poland,120,Raw,,SBD,M
1,Markus Lehtla,2004,150.5,215,217.5,230,230,167.5,175,-180,175,220,237.5,245,245,650,Sub-Juniors,Estonia,120+,Raw,,SBD,M
2,Louis Parry,2004,121.75,202.5,210,217.5,217.5,145,150,155,155,250,260,-270,260,632.5,Sub-Juniors,UK,120+,Raw,,SBD,M
3,Gabriel Cassaniga,2004,120.3,230,-240,240,240,137.5,-142.5,-142.5,137.5,230,-242.5,-242.5,230,607.5,Sub-Juniors,Brazil,120+,Raw,,SBD,M
4,Ahmed Enes Akpolat,2005,121.2,-205,210,215,215,140,147.5,152.5,152.5,200,215,-232.5,215,582.5,Sub-Juniors,Turkey,120+,Raw,,SBD,M
5,Luke Atkinson,2004,122.85,180,-185,185,185,-110,110,115,115,195,202.5,207.5,207.5,507.5,Sub-Juniors,UK,120+,Raw,,SBD,M
6,Noah Espinoza,2006,120.75,160,170,185,185,-85,85,-87.5,85,162.5,-175,-175,162.5,432.5,Sub-Juniors,USA,120+,Raw,,SBD,M
1,Joby Truong,2000,52.6,170,180,-187.5,180,85,90,95,95,200,-210,-210,200,475,Juniors,USA,53,Raw,,SBD,M
2,Gourav Pachori,2002,51.1,145,152.5,-155,152.5,77.5,82.5,-85,82.5,150,175,-185,175,410,Juniors,India,53,Raw,,SBD,M
3,Krishna Done Murali,2001,52.45,140,150,157.5,157.5,70,75,80,80,165,172.5,-182.5,172.5,410,Juniors,India,53,Raw,,SBD,M
1,Jonatán Barros,1999,58.95,195,197.5,215,215,115,-122.5,-122.5,115,235,245,255,255,585,Juniors,Argentina,59,Raw,,SBD,M
2,Taiga Sato,2000,58.75,170,182.5,190,190,140,147.5,-152,147.5,227.5,-240,245,245,582.5,Juniors,Japan,59,Raw,,SBD,M
3,Dickson Giang,1999,58.45,180,185,190,190,127.5,137.5,-140,137.5,230,-237.5,237.5,237.5,565,Juniors,Canada,59,Raw,,SBD,M
4,Iván Campano Díaz,2001,58.5,185,197.5,-205,197.5,120,-122.5,,120,-240,-247.5,247.5,247.5,565,Juniors,Spain,59,Raw,,SBD,M
5,Kyosuke Yoshioka,1999,58.5,182.5,195,197.5,197.5,132.5,-140,140,140,210,-225,-230,210,547.5,Juniors,Japan,59,Raw,,SBD,M
6,Ishtyaq Nabi,1999,58.3,165,175,180,180,117.5,125,127.5,127.5,235,-250,-250,235,542.5,Juniors,UK,59,Raw,,SBD,M
7,Viliam Kováč,2000,58.45,180,185,-187.5,185,115,120,-122.5,120,205,220,-232.5,220,525,Juniors,Czechia,59,Raw,,SBD,M
8,Cathal McGlynn,2000,58.5,160,170,175,175,90,97.5,102.5,102.5,210,217.5,-230,217.5,495,Juniors,Ireland,59,Raw,,SBD,M
9,Davíd Quirante Pérez,2001,58.9,162.5,167.5,172.5,172.5,95,100,102.5,102.5,215,-225,-225,215,490,Juniors,Spain,59,Raw,,SBD,M
10,Kemal Ergin,2002,58.5,155,162.5,167.5,167.5,120,125,-130,125,175,192.5,-200,192.5,485,Juniors,Netherlands,59,Raw,,SBD,M
11,Ali Alshavi,2003,57.55,145,155,167.5,167.5,92.5,97.5,100,100,187.5,200,-212.5,200,467.5,Juniors,Turkey,59,Raw,,SBD,M
12,Siraus Taveeratana,2000,58.55,152.5,157.5,160,160,105,110,115,115,182.5,192.5,-200,192.5,467.5,Juniors,Thailand,59,Raw,,SBD,M
1,Israel Cruz,2000,65.5,220,227.5,230,230,-145,145,147.5,147.5,220,232.5,-245,232.5,610,Juniors,Mexico,66,Raw,,SBD,M
2,Zach Taylor,2000,64.65,212.5,215,-230,215,125,132.5,-135,132.5,242.5,255,-265,255,602.5,Juniors,USA,66,Raw,,SBD,M
3,Yuji Murata,1999,65.5,200,210,-217.5,210,135,142.5,-147.5,142.5,225,240,-247.5,240,592.5,Juniors,Japan,66,Raw,,SBD,M
4,Alex Cremins,1999,65.55,197.5,210,215,215,117.5,125,-127.5,125,252.5,-265,-265,252.5,592.5,Juniors,Ireland,66,Raw,,SBD,M
5,Arthur Hauet,2001,65.9,195,202.5,207.5,207.5,-155,155,-162.5,155,215,230,-245,230,592.5,Juniors,France,66,Raw,,SBD,M
6,Thomas Acher,2000,65.95,-197.5,197.5,-207.5,197.5,150,152.5,-155,152.5,222.5,232.5,237.5,237.5,587.5,Juniors,France,66,Raw,,SBD,M
7,Valerio Nunziata,2001,64.6,190,-197.5,-197.5,190,135,140,-142.5,140,237.5,247.5,252.5,252.5,582.5,Juniors,Italy,66,Raw,,SBD,M
8,Boris Bukatka,2003,65.05,190,210,220,220,125,132.5,-137.5,132.5,200,220,-247.5,220,572.5,Juniors,Kazakhstan,66,Raw,,SBD,M
9,Mark Escabarte,1999,65.05,175,185,190,190,115,122.5,125,125,235,245,-252.5,245,560,Juniors,Ireland,66,Raw,,SBD,M
10,Diego Barquin,2001,65.2,180,195,200,200,115,122.5,-127.5,122.5,195,215,-230,215,537.5,Juniors,Uruguay,66,Raw,,SBD,M
11,Tenho Talvensaari,1999,65.55,185,195,-200,195,117.5,-125,-125,117.5,210,222.5,-232.5,222.5,535,Juniors,Finland,66,Raw,,SBD,M
12,Mustafa Mert Altunkaya,2001,65.25,-160,-160,160,160,115,-120,120,120,185,200,-210,200,480,Juniors,Turkey,66,Raw,,SBD,M
1,Carl Johansson,2000,73.55,232.5,245,250,250,157.5,162.5,167.5,167.5,282.5,295,300,300,717.5,Juniors,Sweden,74,Raw,,SBD,M
2,Jeffrey Leung,1999,73.75,232.5,242.5,250,250,145,155,-160,155,290,-308.5,-313,290,695,Juniors,USA,74,Raw,,SBD,M
3,Antoine Darmon,1999,73.6,235,247.5,-257.5,247.5,137.5,142.5,147.5,147.5,270,285,-290,285,680,Juniors,UK,74,Raw,,SBD,M
4,Alexandre Pont,2002,73.65,225,235,-237.5,235,162.5,-170,,162.5,270,280,-285,280,677.5,Juniors,France,74,Raw,,SBD,M
5,Charly Mairesse,2000,73.35,235,247.5,252.5,252.5,145,150,155,155,265,-272.5,-280,265,672.5,Juniors,France,74,Raw,,SBD,M
6,Calum O'Mahony Baker,2001,72.95,220,235,245,245,125,135,140,140,260,270,280,280,665,Juniors,Ireland,74,Raw,,SBD,M
7,Nicolai Rakowski,1999,73.1,235,250,257.5,257.5,135,140,142.5,142.5,235,250,-255,250,650,Juniors,Germany,74,Raw,,SBD,M
8,Adam Duane,2001,71.55,225,235,240,240,140,145,147.5,147.5,250,-260,260,260,647.5,Juniors,Ireland,74,Raw,,SBD,M
9,Quinn Baxter,2001,73.25,235,242.5,250,250,137.5,145,-147.5,145,247.5,252.5,-255,252.5,647.5,Juniors,Canada,74,Raw,,SBD,M
10,Lars Engø-Monsen,2002,73.45,202.5,217.5,-225,217.5,150,155,160,160,230,247.5,-255,247.5,625,Juniors,Norway,74,Raw,,SBD,M
11,Di Ke Wu,1999,73.4,195,205,-207.5,205,-152.5,155,162.5,162.5,232.5,242.5,-260,242.5,610,Juniors,Netherlands,74,Raw,,SBD,M
12,Wynand Kuhn,1999,73.1,175,185,187.5,187.5,125,132.5,-135,132.5,260,270,-275,270,590,Juniors,South Africa,74,Raw,,SBD,M
13,Koya Yamada,1999,73.4,190,205,-215,205,130,140,145,145,225,-240,-240,225,575,Juniors,Japan,74,Raw,,SBD,M
14,Vojtěch Haker,2000,73.4,192.5,202.5,207.5,207.5,137.5,-145,145,145,200,212.5,-220,212.5,565,Juniors,Czechia,74,Raw,,SBD,M
15,Arda Iyi Mehmet,2000,73.3,202.5,-212.5,-217.5,202.5,122.5,127.5,-132.5,127.5,205,220,222.5,222.5,552.5,Juniors,Turkey,74,Raw,,SBD,M
16,Batuhan Tecimen,2003,71.25,175,185,-190,185,130,137.5,-140,137.5,190,200,207.5,207.5,530,Juniors,Turkey,74,Raw,,SBD,M
DQ,Joy Fernandes Aren,2001,73.8,225,-237.5,237.5,237.5,-142.5,-142.5,-142.5,-142.5,282.5,295,302.5,302.5,,Juniors,India,74,Raw,,SBD,M
1,Sean Jin,1999,82.3,262.5,282.5,292.5,292.5,175,185,190,190,282.5,302.5,315,315,797.5,Juniors,USA,83,Raw,,SBD,M
2,Edoardo Mazzucchielli,1999,82.55,277.5,292.5,303,303,162.5,170,-175,170,292.5,312.5,-317.5,312.5,785.5,Juniors,Italy,83,Raw,,SBD,M
3,Nathan Gevao,2000,83,255,270,280,280,167.5,175,-180,175,297.5,317.5,327.5,327.5,782.5,Juniors,UK,83,Raw,,SBD,M
4,Nick Manders,1999,82.65,250,262.5,-267.5,262.5,160,165,167.5,167.5,330,350,-368,350,780,Juniors,Canada,83,Raw,,SBD,M
5,Alex Sydor,2002,81.45,260,270,-272.5,270,145,150,152.5,152.5,285,297.5,-305,297.5,720,Juniors,USA,83,Raw,,SBD,M
6,Souleiman Turki,2000,82.5,257.5,270,280,280,162.5,-167.5,167.5,167.5,272.5,-287.5,-292.5,272.5,720,Juniors,France,83,Raw,,SBD,M
7,Andrea Orlandi,2001,82.5,250,270,-275,270,175,182.5,-185,182.5,260,-280,-280,260,712.5,Juniors,Italy,83,Raw,,SBD,M
8,Matthew Pond,2003,82.35,245,257.5,262.5,262.5,-175,175,180,180,235,247.5,-252.5,247.5,690,Juniors,UK,83,Raw,,SBD,M
9,Patrik Kasuba,2001,82.35,230,242.5,-255,242.5,-150,155,-160,155,260,-262.5,287.5,287.5,685,Juniors,Slovakia,83,Raw,,SBD,M
10,Lukas Kreuzer,1999,81.55,225,235,240,240,170,180,-187.5,180,240,252.5,262.5,262.5,682.5,Juniors,Austria,83,Raw,,SBD,M
11,Juan Ignacio Albin,1999,81.95,240,255,-260,255,145,155,-162.5,155,260,272.5,-280,272.5,682.5,Juniors,Uruguay,83,Raw,,SBD,M
12,Simen Johnson Myrvold,2000,82.55,230,245,250,250,180,190,-197.5,190,230,242.5,-245,242.5,682.5,Juniors,Norway,83,Raw,,SBD,M
13,Ren Ishi,1999,81.2,230,242.5,-247.5,242.5,155,-165,165,165,270,-292.5,-292.5,270,677.5,Juniors,Japan,83,Raw,,SBD,M
14,Brock Allen #1,2000,80.2,225,235,-242.5,235,160,165,-170,165,245,255,265,265,665,Juniors,Canada,83,Raw,,SBD,M
15,Alex Elliot,2002,81.6,220,235,240,240,147.5,-155,157.5,157.5,235,247.5,257.5,257.5,655,Juniors,Ireland,83,Raw,,SBD,M
16,Joery Wesseling,1999,82.6,237.5,-250,-250,237.5,135,142.5,147.5,147.5,252.5,267.5,-277.5,267.5,652.5,Juniors,Netherlands,83,Raw,,SBD,M
17,Karel Rada #2,2001,82.1,230,-237.5,-237.5,230,-135,135,140,140,250,265,-270,265,635,Juniors,Czechia,83,Raw,,SBD,M
18,Mert Tekdemir,2000,82.4,212.5,225,230,230,122.5,130,-132.5,130,255,267.5,-272.5,267.5,627.5,Juniors,Turkey,83,Raw,,SBD,M
19,Tomáš Votava,2003,80.4,205,215,222.5,222.5,145,-150,-150,145,240,250,-255,250,617.5,Juniors,Czechia,83,Raw,,SBD,M
20,Michael Huisamen,2001,81.5,200,210,-215,210,120,132.5,-142.5,132.5,220,237.5,-242.5,237.5,580,Juniors,South Africa,83,Raw,,SBD,M
DQ,Pablo de Haro Muñoz,2000,81.55,225,240,250,250,-172.5,-172.5,-172.5,-172.5,245,262.5,277.5,277.5,,Juniors,Spain,83,Raw,,SBD,M
1,Yulong Li,2000,91.2,282.5,292.5,300,300,185,195,200,200,290,302.5,312.5,312.5,812.5,Juniors,Sweden,93,Raw,,SBD,M
2,James Adcock,1999,92.15,275,295,302.5,302.5,155,162.5,167.5,167.5,315,337.5,-345,337.5,807.5,Juniors,UK,93,Raw,,SBD,M
3,Richmond Baiden,2001,92.5,277.5,292.5,-302.5,292.5,180,192.5,197.5,197.5,300,315,-325,315,805,Juniors,France,93,Raw,,SBD,M
4,Shane Nutt,2000,92,275,290,300,300,167.5,175,177.5,177.5,317.5,-337.5,-337.5,317.5,795,Juniors,USA,93,Raw,,SBD,M
5,Isak Asperud,2002,92,247.5,260,270,270,180,187.5,192.5,192.5,260,275,285,285,747.5,Juniors,Norway,93,Raw,,SBD,M
6,John Wortel,2000,92.55,245,255,262.5,262.5,172.5,177.5,180,180,280,292.5,297.5,297.5,740,Juniors,Netherlands,93,Raw,,SBD,M
7,Alexander Olarte-Hood,1999,92.4,-265,-265,265,265,185,192.5,200,200,-265,270,-295,270,735,Juniors,USA,93,Raw,,SBD,M
8,Benjamin Rastum,1999,92.7,260,275,-280,275,165,172.5,177.5,177.5,257.5,277.5,-287.5,277.5,730,Juniors,Norway,93,Raw,,SBD,M
9,Enrico Pravato,2000,92.65,245,260,-270,260,160,167.5,170,170,280,292.5,297.5,297.5,727.5,Juniors,Italy,93,Raw,,SBD,M
10,Johnathan Asselstine,2000,91.75,255,265,270,270,157.5,165,-170,165,270,280,285,285,720,Juniors,Canada,93,Raw,,SBD,M
11,Curtis Nelson,1999,91.85,265,270,275,275,170,-175,-175,170,262.5,267.5,-272.5,267.5,712.5,Juniors,Canada,93,Raw,,SBD,M
12,Lars Lukeš,1999,91.85,225,237.5,-247.5,237.5,145,155,-162.5,155,282.5,295,-305,295,687.5,Juniors,Czechia,93,Raw,,SBD,M
13,Adrian Rivadera,2002,92.25,240,252.5,-262.5,252.5,145,152.5,-157.5,152.5,280,-292.5,-292.5,280,685,Juniors,Argentina,93,Raw,,SBD,M
14,Thomas Delamore,1999,91.7,240,252.5,260,260,127.5,132.5,137.5,137.5,265,277.5,-290,277.5,675,Juniors,New Zealand,93,Raw,,SBD,M
15,Hamich Imad,2002,92.25,245,-255,-255,245,155,162.5,-167.5,162.5,265,-277.5,-277.5,265,672.5,Juniors,Belgium,93,Raw,,SBD,M
16,Elyes Zerai,2000,91.3,220,227.5,232.5,232.5,115,,,115,295,-305,-305,295,642.5,Juniors,Tunisia,93,Raw,,SBD,M
1,Corentin Clément,2000,104,300,320,327.5,327.5,200,-205,205,205,340,362.5,-370.5,362.5,895,Juniors,France,105,Raw,,SBD,M
2,Anthony McNaughton,2000,104.85,-305,-305,305,305,205,220,227.5,227.5,305,330,-365,330,862.5,Juniors,USA,105,Raw,,SBD,M
3,Antonio Pérez Barros,2001,104.35,300,320,330.5,330.5,157.5,165,167.5,167.5,310,327.5,-335,327.5,825.5,Juniors,Spain,105,Raw,,SBD,M
4,Fares Sboui,2000,101.3,260,275,285,285,182.5,195,-200,195,285,300,307.5,307.5,787.5,Juniors,Tunisia,105,Raw,,SBD,M
5,Lewis Bennett #1,1999,102.1,257.5,270,277.5,277.5,190,197.5,200,200,280,295,305,305,782.5,Juniors,UK,105,Raw,,SBD,M
6,Saeid Alhasi,2001,103.6,280,-295,-300,280,190,-200,-200,190,312.5,-320,-330,312.5,782.5,Juniors,Libya,105,Raw,,SBD,M
7,Jonathan Celis,2000,98.45,280,297.5,-305,297.5,170,180,187.5,187.5,270,282.5,292.5,292.5,777.5,Juniors,Belgium,105,Raw,,SBD,M
8,Michael Pierides,1999,104.1,267.5,285,-295,285,180,185,187.5,187.5,277.5,292.5,302.5,302.5,775,Juniors,UK,105,Raw,,SBD,M
9,Andrew Blackwood,2001,101.25,255,270,275,275,150,160,165,165,300,315,-325,315,755,Juniors,Ireland,105,Raw,,SBD,M
10,Thomas Johnston #5,2002,102.8,265,272.5,275,275,-150,-150,150,150,295,315,327.5,327.5,752.5,Juniors,Canada,105,Raw,,SBD,M
11,Mats Høylo Kjøllesdal,2001,104.7,257.5,270,277.5,277.5,175,-182.5,-182.5,175,272.5,292.5,-305,292.5,745,Juniors,Norway,105,Raw,,SBD,M
12,Lex van Haaren,1999,102,270,-280,280,280,155,162.5,-170,162.5,290,300,-302.5,300,742.5,Juniors,Netherlands,105,Raw,,SBD,M
13,Michael Barsoom,2000,102.05,270,290,-300,290,160,170,-175,170,260,275,-285,275,735,Juniors,Egypt,105,Raw,,SBD,M
14,Mark Stell,1999,103.9,230,255,-270,255,185,190,195,195,250,275,-300,275,725,Juniors,Ireland,105,Raw,,SBD,M
15,Patrik Tomko,1999,104,227.5,240,-247.5,240,-165,165,-172.5,165,287.5,307.5,320,320,725,Juniors,Slovakia,105,Raw,,SBD,M
16,Nino van Rikxoort,2000,103.9,235,247.5,-252.5,247.5,172.5,-180,187.5,187.5,285,-295,-295,285,720,Juniors,Netherlands,105,Raw,,SBD,M
17,Liam Karovsky,2001,101.75,230,240,247.5,247.5,140,150,152.5,152.5,250,270,-280,270,670,Juniors,South Africa,105,Raw,,SBD,M
18,Yotaro Sato,2003,97.55,200,220,230,230,150,160,-167.5,160,192.5,212.5,-220,212.5,602.5,Juniors,Japan,105,Raw,,SBD,M
1,Nicolas Peyraud,1999,109.75,305,315,322.5,322.5,200,210,215,215,325,345,352.5,352.5,890,Juniors,France,120,Raw,,SBD,M
2,Yehia Aboelnaga,1999,106.1,285,305,315,315,195,210,-215,210,325,345,-365,345,870,Juniors,USA,120,Raw,,SBD,M
3,Anton Wasser,2000,118.4,320,332.5,-337.5,332.5,195,202.5,205,205,290,300,-305,300,837.5,Juniors,Sweden,120,Raw,,SBD,M
4,Anders Broeten Lillemoe,1999,119.8,272.5,285,292.5,292.5,160,167.5,-172.5,167.5,330,347.5,363.5,363.5,823.5,Juniors,Norway,120,Raw,,SBD,M
5,Bradley May,1999,117.4,290,305,310,310,170,175,180,180,280,295,305,305,795,Juniors,UK,120,Raw,,SBD,M
6,Sebastian Stanek,1999,118.05,275,290,-300,290,175,182.5,-190,182.5,300,322.5,-335,322.5,795,Juniors,Poland,120,Raw,,SBD,M
7,Jakub Šigut,1999,118.95,275,290,295,295,155,-162.5,162.5,162.5,305,335,-347.5,335,792.5,Juniors,Czechia,120,Raw,,SBD,M
8,Lewis Kelly,2000,112.65,270,282.5,290,290,167.5,175,-180,175,275,295,305,305,770,Juniors,UK,120,Raw,,SBD,M
9,Davi Cardoso Gomes,2002,118.75,275,290,302.5,302.5,155,-165,-170,155,300,310,-317.5,310,767.5,Juniors,Brazil,120,Raw,,SBD,M
10,Mohammed Aldirsi,1999,110.25,-260,270,-280,270,160,172.5,175,175,280,-290,-300,280,725,Juniors,Libya,120,Raw,,SBD,M
11,William Talbot #1,1999,116.95,255,265,275,275,152.5,160,-165,160,265,272.5,-285,272.5,707.5,Juniors,Canada,120,Raw,,SBD,M
12,Grzegorz Heinze,2002,118.5,260,275,,275,175,-185,185,185,215,,,215,675,Juniors,Poland,120,Raw,,SBD,M
13,Justin Furman,2001,117.8,225,240,-247.5,240,130,137.5,-140,137.5,240,250,-255,250,627.5,Juniors,South Africa,120,Raw,,SBD,M
1,Temur Samkharadze,2001,154.75,360,375,390,390,210,220,-230,220,370,385.5,-390,385.5,995.5,Juniors,Georgia,120+,Raw,,SBD,M
2,Nuutti Mansukoski,2000,152.05,280,305,320,320,190,-200,202.5,202.5,285,322.5,340,340,862.5,Juniors,Finland,120+,Raw,,SBD,M
3,Kristian Eek Haugen,2001,136.15,292.5,302.5,,302.5,212.5,222.5,230,230,290,307.5,315,315,847.5,Juniors,Norway,120+,Raw,,SBD,M
4,Alexander Renner,1999,142.5,270,290,-305,290,205,215,220,220,302.5,335,-342.5,335,845,Juniors,Austria,120+,Raw,,SBD,M
5,Martin Valenta,2002,141.9,305,312.5,320,320,180,190,-195,190,300,312.5,-322.5,312.5,822.5,Juniors,Czechia,120+,Raw,,SBD,M
6,Artem Usov,2000,138.15,290,300,310,310,180,185,190,190,290,300,-322.5,300,800,Juniors,Czechia,120+,Raw,,SBD,M
7,Aiden Davis,2003,172.2,220,240,260,260,185,195,-205,195,240,260,272.5,272.5,727.5,Juniors,Canada,120+,Raw,,SBD,M
8,Flávio Araújo,1999,123.45,260,270,275,275,160,167.5,-172.5,167.5,267.5,275,280,280,722.5,Juniors,Brazil,120+,Raw,,SBD,M
9,Zafar Suleman,2000,153.5,220,240,245,245,-145,145,-157.5,145,240,255,-265,255,645,Juniors,South Africa,120+,Raw,,SBD,M
1,Aylin Cuevas,2004,42.2,80,85,90,90,35,37.5,-40,37.5,105,-112.5,112.5,112.5,240,Sub-Juniors,Mexico,43,Raw,,SBD,F
2,Karina Tychkova,2004,41.15,70,77.5,-82.5,77.5,35,37.5,40,40,90,-100,-105,90,207.5,Sub-Juniors,Kazakhstan,43,Raw,,SBD,F
1,Khlifi Sarra,2004,46.05,70,75,80,80,45,47.5,-50,47.5,95,102.5,105,105,232.5,Sub-Juniors,Tunisia,47,Raw,,SBD,F
2,Chloe Trent,2006,44.7,70,77.5,80,80,40,42.5,-45,42.5,90,95,100,100,222.5,Sub-Juniors,UK,47,Raw,,SBD,F
3,Snezhana Zakhvatoshina,2007,46.4,70,-77.5,-77.5,70,40,45,47.5,47.5,75,82.5,-90,82.5,200,Sub-Juniors,Kazakhstan,47,Raw,,SBD,F
1,Anastasia Serdiuk,2004,51.45,107.5,112.5,115,115,65,67.5,70,70,130,137.5,-142.5,137.5,322.5,Sub-Juniors,Ukraine,52,Raw,,SBD,F
2,Karoliina Vikeväkorva,2004,51.15,95,97.5,-102.5,97.5,55,60,-62.5,60,120,125,127.5,127.5,285,Sub-Juniors,Finland,52,Raw,,SBD,F
3,Eerika Palosaari,2005,51.4,85,90,95,95,62.5,67.5,-70,67.5,100,107.5,110,110,272.5,Sub-Juniors,Finland,52,Raw,,SBD,F
4,Yuna Nishiyama,2006,50.45,85,-90,-90,85,45,50,-52.5,50,110,115,117.5,117.5,252.5,Sub-Juniors,Japan,52,Raw,,SBD,F
5,Kübra Yılmaz,2004,50.95,-80,80,85,85,40,45,-47.5,45,102.5,112.5,-117.5,112.5,242.5,Sub-Juniors,Turkey,52,Raw,,SBD,F
6,Hannah Karpal,2006,51.45,75,-80,-80,75,45,47.5,-50,47.5,105,112.5,117.5,117.5,240,Sub-Juniors,UK,52,Raw,,SBD,F
7,Nicole Loubser,2004,51.15,80,85,-90,85,37.5,40,-42.5,40,100,-107.5,-107.5,100,225,Sub-Juniors,South Africa,52,Raw,,SBD,F
1,Giovanna Auletta,2004,56.45,117.5,125,130,130,67.5,70,-72.5,70,137.5,147.5,159,159,359,Sub-Juniors,Italy,57,Raw,,SBD,F
2,Tsolmongoo Khishigjargal,2004,56.75,107.5,117.5,127.5,127.5,55,60,-62.5,60,135,142.5,150,150,337.5,Sub-Juniors,Mongolia,57,Raw,,SBD,F
3,Victoria Hart,2004,56.95,122.5,130,137.5,137.5,70,72.5,-75,72.5,120,127.5,-132.5,127.5,337.5,Sub-Juniors,UK,57,Raw,,SBD,F
4,Abi Houlihan,2005,56.35,115,120,125,125,47.5,50,52.5,52.5,130,137.5,-140,137.5,315,Sub-Juniors,Ireland,57,Raw,,SBD,F
5,Amina Karimova,2005,56.85,115,122.5,-127.5,122.5,65,-67.5,67.5,67.5,115,-125,-125,115,305,Sub-Juniors,Kazakhstan,57,Raw,,SBD,F
6,Kauane Zenie,2006,56,95,102.5,-107.5,102.5,55,57.5,60,60,125,135,-142.5,135,297.5,Sub-Juniors,Brazil,57,Raw,,SBD,F
7,Ninni Kopola,2007,55.85,100,105,107.5,107.5,62.5,-67.5,67.5,67.5,100,110,120,120,295,Sub-Juniors,Finland,57,Raw,,SBD,F
8,Noelia Lopez,2005,55.25,87.5,95,-100,95,37.5,40,-42.5,40,-102.5,102.5,105,105,240,Sub-Juniors,Mexico,57,Raw,,SBD,F
9,Surina Devnarain,2004,55.6,80,85,90,90,37.5,42.5,-45,42.5,90,97.5,102.5,102.5,235,Sub-Juniors,South Africa,57,Raw,,SBD,F
10,Manami Totsuka,2004,53.5,65,70,77.5,77.5,30,35,37.5,37.5,-80,90,95,95,210,Sub-Juniors,Japan,57,Raw,,SBD,F
1,Juuli Kostian,2006,62.35,140,145,150,150,92.5,-98.5,-98.5,92.5,150,155,,155,397.5,Sub-Juniors,Finland,63,Raw,,SBD,F
2,Skye Moore,2005,62.5,137.5,142.5,-147.5,142.5,77.5,80,82.5,82.5,135,145,-157.5,145,370,Sub-Juniors,UK,63,Raw,,SBD,F
3,Mijuane de Wet,2006,62,130,135,-140,135,60,-65,-65,60,140,-152.5,152.5,152.5,347.5,Sub-Juniors,South Africa,63,Raw,,SBD,F
4,Chloe Suchomel,2005,61.6,107.5,117.5,-122.5,117.5,77.5,82.5,87.5,87.5,135,-150,-150,135,340,Sub-Juniors,USA,63,Raw,,SBD,F
5,Macey Hall,2004,59.5,112.5,117.5,120,120,70,-75,75,75,125,-130,-130,125,320,Sub-Juniors,Ireland,63,Raw,,SBD,F
6,Eva Polini,2007,60.05,125,-137.5,-150,125,55,62.5,-67.5,62.5,-125,125,-135,125,312.5,Sub-Juniors,USA,63,Raw,,SBD,F
7,Abigail Hanrahan-Miller,2005,59.85,95,100,105,105,57.5,62.5,65,65,135,140,-145,140,310,Sub-Juniors,Canada,63,Raw,,SBD,F
8,Pichaya Chanpongsri,2005,61.2,105,112.5,-117.5,112.5,50,-55,-55,50,120,130,-140,130,292.5,Sub-Juniors,Thailand,63,Raw,,SBD,F
9,Isabella Nolan,2006,59.6,95,102.5,107.5,107.5,-40,40,-42.5,40,117.5,122.5,127.5,127.5,275,Sub-Juniors,Canada,63,Raw,,SBD,F
10,Alexis Nel,2008,60.95,70,77.5,-80,77.5,37.5,42.5,-45,42.5,95,105,110,110,230,Sub-Juniors,South Africa,63,Raw,,SBD,F
11,Sana Yamaguchi,2004,60.95,67.5,70,72.5,72.5,37.5,40,42.5,42.5,110,-120,-120,110,225,Sub-Juniors,Japan,63,Raw,,SBD,F
1,Kaja Stabulewska,2004,66.75,140,142.5,150,150,100,-105,-105,100,170,177.5,-185,177.5,427.5,Sub-Juniors,Poland,69,Raw,,SBD,F
2,Joy Rindfleisch,2004,66.85,125,132.5,137.5,137.5,96,101,-103,101,140,147.5,152.5,152.5,391,Sub-Juniors,USA,69,Raw,,SBD,F
3,Oona Kujala,2004,67.7,142.5,150,-155,150,77.5,82.5,-85,82.5,145,155,-160,155,387.5,Sub-Juniors,Finland,69,Raw,,SBD,F
4,Svatava Hanykyrova,2004,67.6,145,150,-152.5,150,65,-70,-70,65,152.5,160,-172.5,160,375,Sub-Juniors,Czechia,69,Raw,,SBD,F
5,Emilia Martin,2004,68.25,117.5,125,130,130,67.5,72.5,75,75,142.5,152.5,160,160,365,Sub-Juniors,UK,69,Raw,,SBD,F
6,Minka Poikselkä,2004,68.05,120,127.5,132.5,132.5,90,-97.5,97.5,97.5,120,125,130,130,360,Sub-Juniors,Finland,69,Raw,,SBD,F
1,Asia Franchini,2004,73.15,155,162.5,167.5,167.5,92.5,95,-97.5,95,170,177.5,182.5,182.5,445,Sub-Juniors,Italy,76,Raw,,SBD,F
2,Courtney Comer,2004,73.5,140,147.5,-152.5,147.5,105,-110,-110,105,165,175,-195,175,427.5,Sub-Juniors,USA,76,Raw,,SBD,F
3,Roechelle Van der Merwe,2006,72.5,117.5,125,130,130,52.5,57.5,60,60,140,147.5,150,150,340,Sub-Juniors,South Africa,76,Raw,,SBD,F
4,Katelynn Allen,2004,72.15,117.5,122.5,125,125,60,62.5,65,65,137.5,142.5,147.5,147.5,337.5,Sub-Juniors,Canada,76,Raw,,SBD,F
5,Ella Smallcombe,2004,73.05,105,112.5,115,115,50,55,57.5,57.5,140,147.5,-150,147.5,320,Sub-Juniors,UK,76,Raw,,SBD,F
6,Adéla Čtveráková,2004,74.25,107.5,115,120,120,62.5,65,-67.5,65,125,135,-140,135,320,Sub-Juniors,Czechia,76,Raw,,SBD,F
7,Sonam Singh,2007,75.2,95,100,110,110,50,52.5,-60,52.5,125,137.5,155,155,317.5,Sub-Juniors,South Africa,76,Raw,,SBD,F
8,Fulya Cankurt,2004,71.8,95,110,-120,110,55,60,65,65,135,-145,-147.5,135,310,Sub-Juniors,Turkey,76,Raw,,SBD,F
9,Štěpánka Radová,2006,69.8,112.5,-117.5,117.5,117.5,55,60,-62.5,60,125,-132.5,-132.5,125,302.5,Sub-Juniors,Czechia,76,Raw,,SBD,F
1,Lara Hinz,2004,83.5,160,-172.5,-172.5,160,85,87.5,-90,87.5,180,187.5,-200.5,187.5,435,Sub-Juniors,Germany,84,Raw,,SBD,F
2,Linda Boneccher,2005,80.4,147.5,155,162.5,162.5,77.5,82.5,-87.5,82.5,155,165,175,175,420,Sub-Juniors,Italy,84,Raw,,SBD,F
3,Martha Day,2004,81.6,137.5,142.5,-147.5,142.5,80,-85,-85,80,160,167.5,-177.5,167.5,390,Sub-Juniors,UK,84,Raw,,SBD,F
4,Marketa Vrabcova,2004,83.7,115,125,137.5,137.5,65,72.5,77.5,77.5,125,135,-140,135,350,Sub-Juniors,Czechia,84,Raw,,SBD,F
5,Aruksaar Andra,2006,81.4,105,115,120,120,52.5,-57.5,57.5,57.5,117.5,120,130,130,307.5,Sub-Juniors,Estonia,84,Raw,,SBD,F
6,Shanti Khalsa,2006,83,95,102.5,-107.5,102.5,-37.5,37.5,42.5,42.5,105,115,125,125,270,Sub-Juniors,USA,84,Raw,,SBD,F
1,Rosanna Lampela,2004,89.9,130,137.5,142.5,142.5,75,77.5,80,80,140,145,150,150,372.5,Sub-Juniors,Finland,84+,Raw,,SBD,F
2,Valerija Petrovaitė,2005,105.85,145,157.5,165,165,67.5,72.5,75,75,110,120,130,130,370,Sub-Juniors,Lithuania,84+,Raw,,SBD,F
3,Reda Laurinavičiūtė,2007,84.25,120,130,135,135,67.5,72.5,,72.5,145,155,-165,155,362.5,Sub-Juniors,Lithuania,84+,Raw,,SBD,F
4,Eylul Gundogdu,2006,86.65,80,90,-100,90,-42.5,45,50,50,105,120,-127.5,120,260,Sub-Juniors,Turkey,84+,Raw,,SBD,F
DQ,Gnana Divya Nagam,2005,88.8,-140,140,-145,140,-50,-50,-50,-50,140,145,147.5,147.5,,Sub-Juniors,India,84+,Raw,,SBD,F
1,Alessandra Gentilucci,2001,42.65,100,110,-112.5,110,60,-62.5,-62.5,60,122.5,130,-137.5,130,300,Juniors,Italy,43,Raw,,SBD,F
2,Laxmi Vaishnav Bhagya,2000,42.2,65,75,85,85,35,42.5,-47.5,42.5,100,115,-122.5,115,242.5,Juniors,India,43,Raw,,SBD,F
3,Elvira Satova,2003,42.9,40,45,50,50,25,27.5,-30,27.5,50,55,60,60,137.5,Juniors,Kazakhstan,43,Raw,,SBD,F
1,Aurélie Nguyen,1999,45.45,120,127.5,132.5,132.5,77.5,82.5,-85,82.5,155,165,170.5,170.5,385.5,Juniors,Canada,47,Raw,,SBD,F
2,Giulia Carvalho,1999,46.4,122.5,127.5,130,130,70,-75,-75,70,142.5,147.5,-152.5,147.5,347.5,Juniors,Brazil,47,Raw,,SBD,F
3,Marta Scuderi,2001,46.35,125,-130,-130,125,70,-72.5,-72.5,70,142.5,-150,-160,142.5,337.5,Juniors,Italy,47,Raw,,SBD,F
4,Mona Shafiei,1999,46.5,100,107.5,110,110,65,70,72.5,72.5,-132.5,142.5,-152.5,142.5,325,Juniors,UK,47,Raw,,SBD,F
5,Gigi Nicolson,1999,46.1,82.5,90,-95,90,52.5,57.5,60,60,125,132.5,137.5,137.5,287.5,Juniors,UK,47,Raw,,SBD,F
6,Estefania Rojo,2000,46.65,85,92.5,-100,92.5,45,-47.5,47.5,47.5,107.5,115,117.5,117.5,257.5,Juniors,Mexico,47,Raw,,SBD,F
1,Camille Hadrys,2000,51.85,137.5,142.5,145.5,145.5,85,87.5,-90,87.5,152.5,160,165,165,398,Juniors,France,52,Raw,,SBD,F
2,Olivia Kyösti,1999,51.7,140,144.5,-145.5,144.5,85,87.5,-90,87.5,152.5,160,-165,160,392,Juniors,Finland,52,Raw,,SBD,F
3,Dana Ye-Lee,1999,51.2,127.5,132.5,135,135,85,87.5,90,90,155,165,-172.5,165,390,Juniors,New Zealand,52,Raw,,SBD,F
4,Giulia Grechi,2001,51.35,-127.5,127.5,132.5,132.5,67.5,70,-72.5,70,170,-180,-188,170,372.5,Juniors,Italy,52,Raw,,SBD,F
5,Izabela Góralska,2000,50.95,130,-135,-135,130,75,77.5,-80,77.5,150,160,-170,160,367.5,Juniors,Poland,52,Raw,,SBD,F
6,Fiona Chen,1999,50.9,-105,105,112.5,112.5,67.5,-72.5,72.5,72.5,165,-170,-172.5,165,350,Juniors,Canada,52,Raw,,SBD,F
7,Yareldy Pech,1999,51.55,130,135,140,140,62.5,-65,-65,62.5,127.5,135,137.5,137.5,340,Juniors,Mexico,52,Raw,,SBD,F
8,Emily Manire,2001,51.9,-95,95,-105,95,55,60,-65,60,132.5,-140,-140,132.5,287.5,Juniors,USA,52,Raw,,SBD,F
9,Arisa Maki,1999,50.05,80,85,90,90,52.5,57.5,-62.5,57.5,105,110,-117.5,110,257.5,Juniors,Japan,52,Raw,,SBD,F
1,Maiara Da Silva Días,1999,56.55,165,172.5,177.5,177.5,85,90,-92.5,90,180,190,-210.5,190,457.5,Juniors,Spain,57,Raw,,SBD,F
2,Joya Khairallah,2001,55.55,140,-145,145,145,92.5,95,97.5,97.5,170,175,177.5,177.5,420,Juniors,Lebanon,57,Raw,,SBD,F
3,Ida-Therese Lindeberg,2000,56.45,140,147.5,-150,147.5,80,85,-87.5,85,165,172.5,185,185,417.5,Juniors,Sweden,57,Raw,,SBD,F
4,Helena Mariella Decker,2001,56.75,145,150,152.5,152.5,87.5,90,-92.5,90,-165,165,175,175,417.5,Juniors,Germany,57,Raw,,SBD,F
5,Léa Gratacos,1999,56.25,137.5,145,150,150,87.5,92.5,-97.5,92.5,165,-172.5,-175,165,407.5,Juniors,France,57,Raw,,SBD,F
6,Tori LaPerriere,2000,56.85,127.5,135,140,140,102.5,107.5,-110,107.5,150,-157.5,-157.5,150,397.5,Juniors,Canada,57,Raw,,SBD,F
7,Caitlin Marie Baxter,2001,55.8,130,137.5,142.5,142.5,90,95,100,100,137.5,145,150,150,392.5,Juniors,UK,57,Raw,,SBD,F
8,Michelle Guirado,2001,56.8,135,140,142.5,142.5,77.5,82.5,85,85,157.5,165,-175,165,392.5,Juniors,Mexico,57,Raw,,SBD,F
9,Jade Jacob,2001,56.5,170,178,,178,92.5,-95,,92.5,115,,,115,385.5,Juniors,France,57,Raw,,SBD,F
10,Anujin Narantuya,2000,56.95,140,-147.5,-147.5,140,80,87.5,-92.5,87.5,140,-150,-150,140,367.5,Juniors,Mongolia,57,Raw,,SBD,F
11,Mia Margrethe Ramberg Storstad,1999,56.7,117.5,125,127.5,127.5,90,-97.5,97.5,97.5,125,135,-142.5,135,360,Juniors,Norway,57,Raw,,SBD,F
12,Veronika Pasičná,1999,56.5,130,-135,-135,130,-67.5,67.5,-70,67.5,-150,150,155,155,352.5,Juniors,Czechia,57,Raw,,SBD,F
13,Laoise Quinn,2003,56.65,117.5,125,-135,125,70,75,-80,75,130,140,-150,140,340,Juniors,Ireland,57,Raw,,SBD,F
14,Nicole Hasell,2001,55.65,110,120,-122.5,120,60,65,-70,65,130,140,150,150,335,Juniors,South Africa,57,Raw,,SBD,F
15,Karen Nguyen,2000,55,95,100,-107.5,100,57.5,60,-65,60,122.5,127.5,-135,127.5,287.5,Juniors,USA,57,Raw,,SBD,F
1,Samantha Eugenie,2002,62.7,162.5,-172.5,172.5,172.5,97.5,102.5,105,105,200,210.5,216,216,493.5,Juniors,France,63,Raw,,SBD,F
2,Alba Boström,2001,62.05,152.5,157.5,-162.5,157.5,115,117.5,120,120,180,187.5,195,195,472.5,Juniors,Sweden,63,Raw,,SBD,F
3,Ludivine Delos,2000,62.8,167.5,175,180,180,87.5,92.5,95,95,175,185,190,190,465,Juniors,France,63,Raw,,SBD,F
4,Yu Nomura,2000,62.35,140,-150,150,150,87.5,92.5,95,95,200,-211,-215.5,200,445,Juniors,Japan,63,Raw,,SBD,F
5,Lucy Robinson #1,2002,61.9,150,160,165,165,70,75,77.5,77.5,185,195,-200,195,437.5,Juniors,UK,63,Raw,,SBD,F
6,Sara Raggi,1999,62.8,145,150,-155,150,85,-90,-90,85,180,192.5,202.5,202.5,437.5,Juniors,Italy,63,Raw,,SBD,F
7,Jody Stevens,2001,62.2,145,155,160,160,80,82.5,-85,82.5,180,-190,190,190,432.5,Juniors,Ireland,63,Raw,,SBD,F
8,Janneke Brauckman,1999,61.05,135,142.5,-145,142.5,100,105,107.5,107.5,160,167.5,-172.5,167.5,417.5,Juniors,Netherlands,63,Raw,,SBD,F
9,Tara Pigott,1999,61.55,145,152.5,157.5,157.5,82.5,87.5,-92.5,87.5,167.5,-177.5,-177.5,167.5,412.5,Juniors,UK,63,Raw,,SBD,F
10,Mackenzie Rose,1999,62.1,155,-162.5,-162.5,155,90,92.5,95,95,155,160,-165,160,410,Juniors,Canada,63,Raw,,SBD,F
11,Dianet Mariano,1999,61.2,130,137.5,142.5,142.5,70,77.5,80,80,160,170,180,180,402.5,Juniors,Mexico,63,Raw,,SBD,F
12,Sofia Ayala,2003,62.7,137.5,150,-155,150,60,65,67.5,67.5,165,185,-190,185,402.5,Juniors,USA,63,Raw,,SBD,F
13,Dominika Jansová,2001,60.9,125,135,-142.5,135,82.5,-87.5,-87.5,82.5,162.5,172.5,-177.5,172.5,390,Juniors,Czechia,63,Raw,,SBD,F
14,Marthe Tjelta,1999,62.6,135,142.5,147.5,147.5,75,-82.5,82.5,82.5,145,157.5,-165,157.5,387.5,Juniors,Norway,63,Raw,,SBD,F
15,Madison Warren,2001,62.05,140,-142.5,-142.5,140,70,-75,-75,70,165,167.5,170,170,380,Juniors,Canada,63,Raw,,SBD,F
16,Leah Kearney,2001,62.6,130,137.5,-142.5,137.5,72.5,77.5,80,80,145,155,-165,155,372.5,Juniors,Ireland,63,Raw,,SBD,F
17,Anne-Spohie Brysse,2000,61.45,120,127.5,132.5,132.5,72.5,77.5,-82.5,77.5,137.5,150,-155,150,360,Juniors,Belgium,63,Raw,,SBD,F
18,Anya Lawrence,1999,61.85,107.5,-117.5,120,120,55,60,-65,60,125,140,-147.5,140,320,Juniors,USA,63,Raw,,SBD,F
1,Clara Peyraud,2002,68.5,167.5,175,-177.5,175,105,107.5,110,110,205,207.5,212.5,212.5,497.5,Juniors,France,69,Raw,,SBD,F
2,Noemi Fanton,2000,67.1,175,-182.5,182.5,182.5,100,105,-110,105,195,202.5,-210,202.5,490,Juniors,Italy,69,Raw,,SBD,F
3,Agnes Rudin,2000,68.9,172.5,177.5,-180,177.5,110,-116,-116,110,180,187.5,190,190,477.5,Juniors,Sweden,69,Raw,,SBD,F
4,Amira Isabel Blecua Malak,1999,68.7,152.5,160,-165,160,100,105,107.5,107.5,190,202.5,-210,202.5,470,Juniors,Spain,69,Raw,,SBD,F
5,Dariya Iskiv,1999,68.2,157.5,165,170,170,100,105,107.5,107.5,177.5,185,190,190,467.5,Juniors,Ukraine,69,Raw,,SBD,F
6,Juliane Slettnes,2001,68.55,165,177.5,183,183,90,97.5,-100,97.5,162.5,172.5,182.5,182.5,463,Juniors,Norway,69,Raw,,SBD,F
7,Sonja Stefanie Krüger,1999,69,170,177.5,-180,177.5,105,107.5,-110,107.5,175,-185,-185,175,460,Juniors,Germany,69,Raw,,SBD,F
8,Asude Daglioglu,2000,68.5,150,160,170,170,72.5,77.5,82.5,82.5,175,190,-202.5,190,442.5,Juniors,Turkey,69,Raw,,SBD,F
9,Sophia Pilwax,1999,64.5,140,147.5,155,155,87.5,92.5,-97.5,92.5,175,-185,185,185,432.5,Juniors,Austria,69,Raw,,SBD,F
10,Jordan Bright,2000,68.35,147.5,155,162.5,162.5,70,77.5,80,80,147.5,157.5,167.5,167.5,410,Juniors,Ireland,69,Raw,,SBD,F
11,Valerie Velemanová,1999,67.8,137.5,-145,-145,137.5,82.5,-87.5,-87.5,82.5,167.5,175,180,180,400,Juniors,Czechia,69,Raw,,SBD,F
12,Carolyn Connor,2003,68,142.5,150,155,155,70,75,80,80,147.5,155,165,165,400,Juniors,USA,69,Raw,,SBD,F
13,Lota Leinberga,1999,68.2,142.5,-152.5,-152.5,142.5,92.5,97.5,100,100,147.5,157.5,-167.5,157.5,400,Juniors,Ireland,69,Raw,,SBD,F
1,Laura Mautalen,2000,74.9,-190,190,200,200,137.5,145.5,-151,145.5,210,-220,-220,210,555.5,Juniors,France,76,Raw,,SBD,F
2,Vilma Olsson,1999,73.55,195,202.5,-207.5,202.5,112.5,117.5,120,120,190,197.5,202.5,202.5,525,Juniors,Sweden,76,Raw,,SBD,F
3,Ellen Grönlund,2000,75.1,175,182.5,187.5,187.5,105,110,112.5,112.5,190,200,205,205,505,Juniors,Finland,76,Raw,,SBD,F
4,Madi McQuoid,1999,74.7,162.5,-170,-170,162.5,92.5,97.5,-100,97.5,180,190,200,200,460,Juniors,New Zealand,76,Raw,,SBD,F
5,Nicole Olakigbe,1999,73.85,137.5,145,150,150,85,90,-92.5,90,180,190,-200,190,430,Juniors,UK,76,Raw,,SBD,F
6,Cathelijne Gort,2001,74.5,125,-132.5,-132.5,125,95,100,-102.5,100,180,192.5,-200,192.5,417.5,Juniors,Netherlands,76,Raw,,SBD,F
7,Lily Riggs,1999,74.9,150,155,160,160,77.5,82.5,-85,82.5,165,170,-175,170,412.5,Juniors,Canada,76,Raw,,SBD,F
8,Erin Chiasson,2000,74.4,-132.5,132.5,140,140,95,100,-102.5,100,162.5,-172.5,-172.5,162.5,402.5,Juniors,Canada,76,Raw,,SBD,F
9,Nawrez Mazhoud,2000,72.35,110,115,122.5,122.5,-70,70,75,75,145,155,162.5,162.5,360,Juniors,Tunisia,76,Raw,,SBD,F
1,Agata Sitko,2002,77.85,180,190,195,195,138,147.5,-156,147.5,215,230,240,240,582.5,Juniors,Poland,84,Raw,,SBD,F
2,Lystus Ebosele,2001,83.55,185,197.5,205,205,112.5,-120,120,120,180,190,-200,190,515,Juniors,Ireland,84,Raw,,SBD,F
3,Jessica Kinney,2000,77.55,170,180,-185,180,110,115,-120,115,200,207.5,212.5,212.5,507.5,Juniors,USA,84,Raw,,SBD,F
4,Melina Irawo,2000,82.35,170,177.5,182.5,182.5,105,110,115,115,190,197.5,207.5,207.5,505,Juniors,UK,84,Raw,,SBD,F
5,Henna Kaasalainen,1999,83.95,187.5,192.5,195,195,92.5,95,97.5,97.5,195,202.5,212.5,212.5,505,Juniors,Finland,84,Raw,,SBD,F
6,Antara Jackson,2001,82.4,157.5,165,-167.5,165,117.5,122.5,-127.5,122.5,200,210,-222.5,210,497.5,Juniors,USA,84,Raw,,SBD,F
7,Sofie Horne,2001,78.75,140,147.5,152.5,152.5,90,95,97.5,97.5,175,185,-195,185,435,Juniors,Norway,84,Raw,,SBD,F
8,Elsa Blanchette,1999,82.9,152.5,160,165,165,75,80,82.5,82.5,155,165,-167.5,165,412.5,Juniors,Canada,84,Raw,,SBD,F
9,Cristina Haug,1999,82.1,135,140,145,145,70,72.5,-75,72.5,150,160,-170,160,377.5,Juniors,Argentina,84,Raw,,SBD,F
10,Alejandra Lopez,2000,77.9,120,125,-127.5,125,57.5,60,-65,60,-120,-120,120,120,305,Juniors,Mexico,84,Raw,,SBD,F
1,Mahailya Reeves,2003,141,220,225,230,230,152,-164.5,164.5,164.5,190,200,-222.5,200,594.5,Juniors,USA,84+,Raw,,SBD,F
2,Regina Meier,1999,125,175,187.5,192.5,192.5,95,102.5,107.5,107.5,147.5,160,165,165,465,Juniors,Kazakhstan,84+,Raw,,SBD,F
3,Leah Gregory,1999,97.1,165,175,182.5,182.5,92.5,100,-107.5,100,155,165,170,170,452.5,Juniors,Canada,84+,Raw,,SBD,F
4,Chizaram Egbuziem,1999,101.35,155,162.5,167.5,167.5,72.5,77.5,82.5,82.5,170,177.5,182.5,182.5,432.5,Juniors,UK,84+,Raw,,SBD,F
5,Talor Aiyegbeni,2001,91.25,145,155,162.5,162.5,55,-57.5,57.5,57.5,170,-180,-180,170,390,Juniors,Ireland,84+,Raw,,SBD,F
