Place,Name,Sex,BirthDate,Age,Country,Equipment,Division,BodyweightKg,WeightClassKg,Squat1Kg,Squat2Kg,Squat3Kg,Squat4Kg,Best3SquatKg,Bench1Kg,Bench2Kg,Bench3Kg,Bench4Kg,Best3BenchKg,Deadlift1Kg,Deadlift2Kg,Deadlift3Kg,Deadlift4Kg,Best3DeadliftKg,TotalKg,Event,Team
1,Catherine Di Martino-Cooke,F,1998-08-18,24,UK,Raw,FOpe-Ra,72.6,75,110,125,130,-135,130,45,-52,52,,52,115,125,135,140,135,317,SBD,BPF
1,Chloe Nazaruk,F,1989-10-03,32,UK,Raw,FOpe-Ra,78,82.5,90,95,100,,100,47.5,-55,55,,55,110,125,-135,,125,280,SBD,BPF
1,Roz Griffiths,F,1973-08-06,49,UK,Wraps,FM-2-CR,82.5,82.5,90,-97.5,-97.5,,90,45,50,-55,,50,120,127.5,-135,,127.5,267.5,SBD,BPF ACADEMY
1,Rebecca Roughton,F,1985-08-30,37,UK,Wraps,FOpe-CR,55.9,56,95,-105,105,,105,65,70,72.5,,72.5,105,-115,115,,115,292.5,SBD,BPF
1,Ashleigh Smedley,F,1994-05-20,28,UK,Wraps,FOpe-CR,107.2,90+,115,125,135,141,135,55,62.5,-67,,62.5,110,120,-135,,120,317.5,SBD,TEAM OLD TYME
1,Jodi Duncan,F,1991-11-06,30,UK,Raw,FOpe-Ra,61.9,67.5,,,,,,,,,,,70,80,-90,,80,80,D,OLD TYME
1,Heather Swain,F,1998-10-09,23,UK,Raw,FJun-Ra,81.7,82.5,,,,,,,,,,,110,120,130,-140,130,130,D,BPF ACADEMY
1,Elina Strautmane,F,1995-01-02,27,UK,Raw,FOpe-Ra,75.5,82.5,,,,,,,,,,,85,95,105,,105,105,D,BPF
1,Mark Bowler,M,,,UK,Raw,MM-1-Ra,114.4,125,190,210,225,,225,115,125,132.5,,132.5,225,250,275,,275,632.5,SBD,OLD TYME
1,Phil Hadley,M,1979-08-14,43,UK,Wraps,MM-1-CR,135.7,140,-190,210,,,210,85,-95,-95,,85,170,180,192.5,,192.5,487.5,SBD,TEAM OLD TYME
1,Matt Stafford,M,1982-12-28,39,UK,Wraps,MOpe-CR,121.7,125,200,210,215,,215,120,130,-135,,130,260,275,-285,,275,620,SBD,BPF
1,Ian Slater,M,1990-07-30,32,UK,Wraps,MOpe-CR,171.2,140+,260,280,300,,300,170,182.5,192.5,-200,192.5,260,280,300,,300,792.5,SBD,
1,Jack Henderson,M,1992-08-22,30,UK,Single-ply,MOpe-SP,97.4,100,-230,230,-247.5,,230,140,150,-157,,150,200,220,237.5,,237.5,617.5,SBD,TEAM OLD TYME
1,Joe Wright,M,1994-05-29,28,UK,Raw,MOpe-Ra,67.9,75,,,,,,62.5,65,-67.5,,65,,,,,,65,B,OLD TYME
1,Ritesh Dogra,M,1992-06-10,30,India,Raw,MOpe-Ra,89.5,90,,,,,,150,165,170,177.5,170,,,,,,170,B,INDIA
2,Surender Singh,M,,46,India,Raw,MOpe-Ra,95.5,100,,,,,,140,155,-160,,155,,,,,,155,B,INDIA
2,Ritesh Dogra,M,,30,India,Raw,MOpe-Ra,89.5,90,,,,,,150,160,170,,170,,,,,,170,B,
1,Saurender Singh,M,,46,India,Raw,MOpe-Ra,95.5,100,,,,,,150,157.5,-162.5,,157.5,,,,,,157.5,B,india
1,John Cotton,M,1968-08-05,54,UK,Single-ply,MM-3-SP,123.7,125,,,,,,220,-225,,,220,,,,,,220,B,BPF ACADEMY
1,Matthew Bevan,M,,,UK,Raw,MM-3-Ra,98.1,100,,,,,,,,,,,130,140,150,,150,150,D,BPF
1,Willam Butchart,M,1989-03-17,33,UK,Raw,MOpe-Ra,72,75,,,,,,,,,,,120,130,140,155,140,140,D,BPF ACADEMY
2,Joe Wright,M,1994-05-29,28,UK,Raw,MOpe-Ra,67.9,75,,,,,,,,,,,75,85,100,105,100,100,D,OLD TYME
2,Ritesh Dogra,M,1992-06-10,30,India,Raw,MOpe-Ra,89.5,90,,,,,,,,,,,260,270,280,,280,280,D,INDIA
1,Surender Singh,M,,46,India,Raw,MOpe-Ra,95.5,100,,,,,,,,,,,250,260,265,,265,265,D,INDIA
1,Ritesh Dogra,M,,30,India,Raw,MOpe-Ra,89.5,90,,,,,,,,,,,285,295,-300,,295,295,D,
2,Saurender Singh,M,,46,India,Raw,MOpe-Ra,95.5,100,,,,,,,,,,,250,260,-270,,260,260,D,india
1,Imran Khan,M,1984-03-16,38,UK,Raw,MOpe-Ra,133.3,140,,,,,,,,,,,160,175,187.5,,187.5,187.5,D,BPF ACADEMY
